MIPS/MIPS_System_Students_nopll_ts/ClockBlk/simulation/qsim/ClockBlk.msim.vcd
$comment
	File created using the following command:
		vcd file ClockBlk.msim.vcd -direction
$end
$date
	Mon Mar 30 16:55:07 2020
$end
$version
	ModelSim Version 10.1d
$end
$timescale
	1ps
$end
$scope module ClockBlk_vlg_vec_tst $end
$var reg 1 ! inclk0 $end
$var wire 1 " c0 $end
$var wire 1 # c1 $end
$var wire 1 $ c2 $end
$var wire 1 % locked $end
$var wire 1 & sampler $end
$scope module i1 $end
$var wire 1 ' gnd $end
$var wire 1 ( vcc $end
$var wire 1 ) unknown $end
$var tri1 1 * devclrn $end
$var tri1 1 + devpor $end
$var tri1 1 , devoe $end
$var wire 1 - inclk0~combout $end
$var wire 1 . inclk0~clkctrl_outclk $end
$var wire 1 / cnt.01~0_combout $end
$var wire 1 0 cnt.01~regout $end
$var wire 1 1 cnt.10~feeder_combout $end
$var wire 1 2 cnt.10~regout $end
$var wire 1 3 cnt.00~0_combout $end
$var wire 1 4 cnt.00~regout $end
$var wire 1 5 c0~0_combout $end
$var wire 1 6 c0~reg0_regout $end
$var wire 1 7 c1~reg0feeder_combout $end
$var wire 1 8 c1~reg0_regout $end
$var wire 1 9 c2~reg0feeder_combout $end
$var wire 1 : c2~reg0_regout $end
$upscope $end
$upscope $end
$enddefinitions $end
#0
$dumpvars
0!
x"
x#
x$
0%
x&
0'
1(
x)
1*
1+
1,
0-
x.
x/
00
x1
02
x3
04
x5
06
x7
08
x9
0:
$end
#118
0.
#453
09
#454
15
07
#455
13
01
#456
1/
#3146
0"
#3158
0#
#3186
0$
#10000
1!
0&
#10999
1-
#11117
1.
#12931
16
10
14
#13385
05
17
#13386
11
#13387
0/
#16077
1"
#20000
0!
1&
#20999
0-
#21117
0.
#30000
1!
0&
#30999
1-
#31117
1.
#32931
18
06
00
12
#33384
19
#33385
07
#33386
03
01
#36077
0"
#36089
1#
#40000
0!
1&
#40999
0-
#41117
0.
#50000
1!
0&
#50999
1-
#51117
1.
#52931
1:
08
02
04
#53384
09
#53385
15
#53386
13
#53387
1/
#56089
0#
#56117
1$
#60000
0!
1&
#60999
0-
#61117
0.
#70000
1!
0&
#70999
1-
#71117
1.
#72931
0:
16
10
14
#73385
05
17
#73386
11
#73387
0/
#76077
1"
#76117
0$
#80000
0!
1&
#80999
0-
#81117
0.
#90000
1!
0&
#90999
1-
#91117
1.
#92931
18
06
00
12
#93384
19
#93385
07
#93386
03
01
#96077
0"
#96089
1#
#100000
0!
1&
#100999
0-
#101117
0.
#110000
1!
0&
#110999
1-
#111117
1.
#112931
1:
08
02
04
#113384
09
#113385
15
#113386
13
#113387
1/
#116089
0#
#116117
1$
#120000
0!
1&
#120999
0-
#121117
0.
#130000
1!
0&
#130999
1-
#131117
1.
#132931
0:
16
10
14
#133385
05
17
#133386
11
#133387
0/
#136077
1"
#136117
0$
#140000
0!
1&
#140999
0-
#141117
0.
#150000
1!
0&
#150999
1-
#151117
1.
#152931
18
06
00
12
#153384
19
#153385
07
#153386
03
01
#156077
0"
#156089
1#
#160000
0!
1&
#160999
0-
#161117
0.
#170000
1!
0&
#170999
1-
#171117
1.
#172931
1:
08
02
04
#173384
09
#173385
15
#173386
13
#173387
1/
#176089
0#
#176117
1$
#180000
0!
1&
#180999
0-
#181117
0.
#190000
1!
0&
#190999
1-
#191117
1.
#192931
0:
16
10
14
#193385
05
17
#193386
11
#193387
0/
#196077
1"
#196117
0$
#200000
0!
1&
#200999
0-
#201117
0.
#210000
1!
0&
#210999
1-
#211117
1.
#212931
18
06
00
12
#213384
19
#213385
07
#213386
03
01
#216077
0"
#216089
1#
#220000
0!
1&
#220999
0-
#221117
0.
#230000
1!
0&
#230999
1-
#231117
1.
#232931
1:
08
02
04
#233384
09
#233385
15
#233386
13
#233387
1/
#236089
0#
#236117
1$
#240000
0!
1&
#240999
0-
#241117
0.
#250000
1!
0&
#250999
1-
#251117
1.
#252931
0:
16
10
14
#253385
05
17
#253386
11
#253387
0/
#256077
1"
#256117
0$
#260000
0!
1&
#260999
0-
#261117
0.
#270000
1!
0&
#270999
1-
#271117
1.
#272931
18
06
00
12
#273384
19
#273385
07
#273386
03
01
#276077
0"
#276089
1#
#280000
0!
1&
#280999
0-
#281117
0.
#290000
1!
0&
#290999
1-
#291117
1.
#292931
1:
08
02
04
#293384
09
#293385
15
#293386
13
#293387
1/
#296089
0#
#296117
1$
#300000
0!
1&
#300999
0-
#301117
0.
#310000
1!
0&
#310999
1-
#311117
1.
#312931
0:
16
10
14
#313385
05
17
#313386
11
#313387
0/
#316077
1"
#316117
0$
#320000
0!
1&
#320999
0-
#321117
0.
#330000
1!
0&
#330999
1-
#331117
1.
#332931
18
06
00
12
#333384
19
#333385
07
#333386
03
01
#336077
0"
#336089
1#
#340000
0!
1&
#340999
0-
#341117
0.
#350000
1!
0&
#350999
1-
#351117
1.
#352931
1:
08
02
04
#353384
09
#353385
15
#353386
13
#353387
1/
#356089
0#
#356117
1$
#360000
0!
1&
#360999
0-
#361117
0.
#370000
1!
0&
#370999
1-
#371117
1.
#372931
0:
16
10
14
#373385
05
17
#373386
11
#373387
0/
#376077
1"
#376117
0$
#380000
0!
1&
#380999
0-
#381117
0.
#390000
1!
0&
#390999
1-
#391117
1.
#392931
18
06
00
12
#393384
19
#393385
07
#393386
03
01
#396077
0"
#396089
1#
#400000
0!
1&
#400999
0-
#401117
0.
#410000
1!
0&
#410999
1-
#411117
1.
#412931
1:
08
02
04
#413384
09
#413385
15
#413386
13
#413387
1/
#416089
0#
#416117
1$
#420000
0!
1&
#420999
0-
#421117
0.
#430000
1!
0&
#430999
1-
#431117
1.
#432931
0:
16
10
14
#433385
05
17
#433386
11
#433387
0/
#436077
1"
#436117
0$
#440000
0!
1&
#440999
0-
#441117
0.
#450000
1!
0&
#450999
1-
#451117
1.
#452931
18
06
00
12
#453384
19
#453385
07
#453386
03
01
#456077
0"
#456089
1#
#460000
0!
1&
#460999
0-
#461117
0.
#470000
1!
0&
#470999
1-
#471117
1.
#472931
1:
08
02
04
#473384
09
#473385
15
#473386
13
#473387
1/
#476089
0#
#476117
1$
#480000
0!
1&
#480999
0-
#481117
0.
#490000
1!
0&
#490999
1-
#491117
1.
#492931
0:
16
10
14
#493385
05
17
#493386
11
#493387
0/
#496077
1"
#496117
0$
#500000
0!
1&
#500999
0-
#501117
0.
#510000
1!
0&
#510999
1-
#511117
1.
#512931
18
06
00
12
#513384
19
#513385
07
#513386
03
01
#516077
0"
#516089
1#
#520000
0!
1&
#520999
0-
#521117
0.
#530000
1!
0&
#530999
1-
#531117
1.
#532931
1:
08
02
04
#533384
09
#533385
15
#533386
13
#533387
1/
#536089
0#
#536117
1$
#540000
0!
1&
#540999
0-
#541117
0.
#550000
1!
0&
#550999
1-
#551117
1.
#552931
0:
16
10
14
#553385
05
17
#553386
11
#553387
0/
#556077
1"
#556117
0$
#560000
0!
1&
#560999
0-
#561117
0.
#570000
1!
0&
#570999
1-
#571117
1.
#572931
18
06
00
12
#573384
19
#573385
07
#573386
03
01
#576077
0"
#576089
1#
#580000
0!
1&
#580999
0-
#581117
0.
#590000
1!
0&
#590999
1-
#591117
1.
#592931
1:
08
02
04
#593384
09
#593385
15
#593386
13
#593387
1/
#596089
0#
#596117
1$
#600000
0!
1&
#600999
0-
#601117
0.
#610000
1!
0&
#610999
1-
#611117
1.
#612931
0:
16
10
14
#613385
05
17
#613386
11
#613387
0/
#616077
1"
#616117
0$
#620000
0!
1&
#620999
0-
#621117
0.
#630000
1!
0&
#630999
1-
#631117
1.
#632931
18
06
00
12
#633384
19
#633385
07
#633386
03
01
#636077
0"
#636089
1#
#640000
0!
1&
#640999
0-
#641117
0.
#650000
1!
0&
#650999
1-
#651117
1.
#652931
1:
08
02
04
#653384
09
#653385
15
#653386
13
#653387
1/
#656089
0#
#656117
1$
#660000
0!
1&
#660999
0-
#661117
0.
#670000
1!
0&
#670999
1-
#671117
1.
#672931
0:
16
10
14
#673385
05
17
#673386
11
#673387
0/
#676077
1"
#676117
0$
#680000
0!
1&
#680999
0-
#681117
0.
#690000
1!
0&
#690999
1-
#691117
1.
#692931
18
06
00
12
#693384
19
#693385
07
#693386
03
01
#696077
0"
#696089
1#
#700000
0!
1&
#700999
0-
#701117
0.
#710000
1!
0&
#710999
1-
#711117
1.
#712931
1:
08
02
04
#713384
09
#713385
15
#713386
13
#713387
1/
#716089
0#
#716117
1$
#720000
0!
1&
#720999
0-
#721117
0.
#730000
1!
0&
#730999
1-
#731117
1.
#732931
0:
16
10
14
#733385
05
17
#733386
11
#733387
0/
#736077
1"
#736117
0$
#740000
0!
1&
#740999
0-
#741117
0.
#750000
1!
0&
#750999
1-
#751117
1.
#752931
18
06
00
12
#753384
19
#753385
07
#753386
03
01
#756077
0"
#756089
1#
#760000
0!
1&
#760999
0-
#761117
0.
#770000
1!
0&
#770999
1-
#771117
1.
#772931
1:
08
02
04
#773384
09
#773385
15
#773386
13
#773387
1/
#776089
0#
#776117
1$
#780000
0!
1&
#780999
0-
#781117
0.
#790000
1!
0&
#790999
1-
#791117
1.
#792931
0:
16
10
14
#793385
05
17
#793386
11
#793387
0/
#796077
1"
#796117
0$
#800000
0!
1&
#800999
0-
#801117
0.
#810000
1!
0&
#810999
1-
#811117
1.
#812931
18
06
00
12
#813384
19
#813385
07
#813386
03
01
#816077
0"
#816089
1#
#820000
0!
1&
#820999
0-
#821117
0.
#830000
1!
0&
#830999
1-
#831117
1.
#832931
1:
08
02
04
#833384
09
#833385
15
#833386
13
#833387
1/
#836089
0#
#836117
1$
#840000
0!
1&
#840999
0-
#841117
0.
#850000
1!
0&
#850999
1-
#851117
1.
#852931
0:
16
10
14
#853385
05
17
#853386
11
#853387
0/
#856077
1"
#856117
0$
#860000
0!
1&
#860999
0-
#861117
0.
#870000
1!
0&
#870999
1-
#871117
1.
#872931
18
06
00
12
#873384
19
#873385
07
#873386
03
01
#876077
0"
#876089
1#
#880000
0!
1&
#880999
0-
#881117
0.
#890000
1!
0&
#890999
1-
#891117
1.
#892931
1:
08
02
04
#893384
09
#893385
15
#893386
13
#893387
1/
#896089
0#
#896117
1$
#900000
0!
1&
#900999
0-
#901117
0.
#910000
1!
0&
#910999
1-
#911117
1.
#912931
0:
16
10
14
#913385
05
17
#913386
11
#913387
0/
#916077
1"
#916117
0$
#920000
0!
1&
#920999
0-
#921117
0.
#930000
1!
0&
#930999
1-
#931117
1.
#932931
18
06
00
12
#933384
19
#933385
07
#933386
03
01
#936077
0"
#936089
1#
#940000
0!
1&
#940999
0-
#941117
0.
#950000
1!
0&
#950999
1-
#951117
1.
#952931
1:
08
02
04
#953384
09
#953385
15
#953386
13
#953387
1/
#956089
0#
#956117
1$
#960000
0!
1&
#960999
0-
#961117
0.
#970000
1!
0&
#970999
1-
#971117
1.
#972931
0:
16
10
14
#973385
05
17
#973386
11
#973387
0/
#976077
1"
#976117
0$
#980000
0!
1&
#980999
0-
#981117
0.
#990000
1!
0&
#990999
1-
#991117
1.
#992931
18
06
00
12
#993384
19
#993385
07
#993386
03
01
#996077
0"
#996089
1#
